{
  "type": "service_account",
  "project_id": "quiet-platform-333018",
  "private_key_id": "b168ef681fa92868837c99649a257c54f3070ae6",
  "private_key": "-----BEGIN PRIVATE KEY-----\nMIIEvAIBADANBgkqhkiG9w0BAQEFAASCBKYwggSiAgEAAoIBAQDYuudn/7eBIujb\nuroyKGBaARXvNAOqJcqsLYrLybEdX7IoomRhh1d3rTzpogGODXSuys/Lkp1rkhR7\nwjM3TpKGG+NrRRUTRvQaCveP4Ua2+ZwKzf/jhQ7DhnIIx6PVMnEXKvIZJQiDe+gG\nFnJRsE6lMA938yqdC1yfK2GRK8n7KDNFtacsv9dAvWRXcmBenxBAsc4rzzn1Z9+2\nGU4eFlHBuQrnk+PqiVSoiLt9jv6odsT+w6uZ75rF+p96AZjhOkit+4IGmI2EbDyj\n544s9WkS+DYPyURrwCk8B1P1951w6R/uUfBfR0NA1ubnezBgqE8BdW4AY/E7JAtQ\nXegC5ezlAgMBAAECggEAH1LkHyPWYdOp1Bgo0RcE1f1SLkBWR0EvCbOLW+jKsHQk\nS7ssxuvIuINRSnMfxmgrdRfa8JFAL0vtqfVncZbplnhxZg+V/DNFFH6BSUpF7iwl\nYWpkkX2ppJjJ4nr4MtgXgEG0u+2eTWKbJkYYP7Y7p6RKmAuNHSWHPXoHn/O0PZhN\nr61/Bjdzy+d+rvpkRlJKa1oLTrqMj3BTlJCAnkkyuM4hu2XX8aTO8tkuS1YHbK/4\nzyuwDMikyPv8h7rObsrlJwj/tPeSRMTzzkJBEg/8uuMIxmo9BId8Z6Nv3bXxpRmy\naG8ak7qj5btTKSX9qCEe75ox9p3EWl9V9PIXas+gAQKBgQDz4Zk8EwVup6LdPHmW\na0KTtpqflNfqtt9dPQ+4cXf4MtfFpbwB/DBTCCif0/XPF+D8Ac6fbFesGdekws4/\n7ca8fdy543xJYJZl/J5nxH4s1XecirgXwwh0vuxI+j7LwNJff9nudCiMf6IF+Ube\nMWtAU6EPEyFZ8m91Jhsfd3t5rQKBgQDjf+q5RTqSBVbIOktLqTzmHdyfpmAV5Kvj\nNJpPOHYbO9Rx+P1p8eUZNAwvbqu0rjkYlC/hI2meoN9e8IQLt/S9ACuSkgyAx4gz\niiYkIRX4fKTTNdm69m8H+MkcP+OltrOFkChbya6B/Oc7ntJoShUVJV3XjbMoyzNH\nx3LhtZqXGQKBgAL2ToIoSPybFKNTRLbK/rgEk8Q0bprvNa9QOoym9CoTlANWi/4K\nLhwUEUo/rNCjHZxx+Sx+iGISvkfGBfNI1A0eCjxHww6xGaKLevEPteidfyJrnOjM\n+aFRYFVSlMiswuFeECuRRZzPQAyKho3UU9UoLuCb/t+0zh3CJLoxHVLRAoGARI0z\nCYjW0VFSiRsnvTDN7PlqlaDoqzAwq1IafWyiCirJJV7F3brKMgIA+fn7O4KUKdfd\nZZXqKaaIKG+JGo7f7GO0vYHMyrFVVVJ3k8N0f1/vusUrSq8fXeOVljGaQ0D+b2y0\n/JOVRg4TD2AYPtyz5Z9Q27cTGWPBnAt5jpHOd2ECgYBCFnjVn2iHjHk3vEAXVAHc\nmy6NAgKKeyEEZXsgfA2yMSDvFIHSDGjoyxdDS1FJ4LXzQwgtxyslAETjAhNnW/cY\ny6ARo1e8lWhhF8Bq+s+zwDuhhDnxcAcdcD5FLt5iXRLhOal/3XqL8MsaI2xvpVVY\nkkZH4l2cHMx4Wjd6WWE++w==\n-----END PRIVATE KEY-----\n",
  "client_email": "controle-op@quiet-platform-333018.iam.gserviceaccount.com",
  "client_id": "101658399995427176593",
  "auth_uri": "https://accounts.google.com/o/oauth2/auth",
  "token_uri": "https://oauth2.googleapis.com/token",
  "auth_provider_x509_cert_url": "https://www.googleapis.com/oauth2/v1/certs",
  "client_x509_cert_url": "https://www.googleapis.com/robot/v1/metadata/x509/controle-op%40quiet-platform-333018.iam.gserviceaccount.com"
}
